<svg xmlns="http://www.w3.org/2000/svg" width="23.974" height="22.195" viewBox="0 0 23.974 22.195">
  <g id="Group_835" data-name="Group 835" transform="translate(0.5 0.5)">
    <path id="Path_1607" data-name="Path 1607" d="M-230.913,71.033V65.257a.406.406,0,0,0-.406-.406h-3.6a.406.406,0,0,0-.406.406v5.776h-14.13V65.257a.406.406,0,0,0-.406-.406h-3.6a.406.406,0,0,0-.406.406V75.449H-230.9V71.033Z" transform="translate(253.874 -56.462)" fill="none" stroke="#f85557" stroke-linejoin="round" stroke-width="1"/>
    <path id="Path_1608" data-name="Path 1608" d="M-246.973,57.385v5.776h14.13V57.385a.406.406,0,0,1,.406-.406h1.36V49.307a.717.717,0,0,0-.717-.717h-16.229a.717.717,0,0,0-.717.717v7.673h1.36A.406.406,0,0,1-246.973,57.385Z" transform="translate(251.388 -48.59)" fill="none" stroke="#f85557" stroke-linejoin="round" stroke-width="1"/>
    <rect id="Rectangle_827" data-name="Rectangle 827" width="14.13" height="3.974" transform="translate(4.416 10.597)" fill="none" stroke="#f85557" stroke-linejoin="round" stroke-width="1"/>
    <rect id="Rectangle_828" data-name="Rectangle 828" width="1.766" height="2.208" transform="translate(20.311 18.987)" fill="none" stroke="#f85557" stroke-linejoin="round" stroke-width="1"/>
    <rect id="Rectangle_829" data-name="Rectangle 829" width="1.766" height="2.208" transform="translate(0.883 18.987)" fill="none" stroke="#f85557" stroke-linejoin="round" stroke-width="1"/>
  </g>
</svg>
