<svg xmlns="http://www.w3.org/2000/svg" width="59.224" height="61.762" viewBox="0 0 59.224 61.762">
  <g data-name="Group 483" transform="translate(-522.643 -3296.708)">
    <path id="Path_230" data-name="Path 230" d="M29.574,75.9V32.128h30.9V75.9" transform="translate(507.231 3281.317)" fill="none" stroke="#f95658" stroke-miterlimit="10" stroke-width="2.5"/>
    <rect id="Rectangle_24" data-name="Rectangle 24" width="23.175" height="5.15" transform="translate(540.668 3308.295)" fill="none" stroke="#f95658" stroke-miterlimit="10" stroke-width="2.5"/>
    <rect id="Rectangle_25" data-name="Rectangle 25" width="15.45" height="5.15" transform="translate(544.53 3303.146)" fill="none" stroke="#f95658" stroke-miterlimit="10" stroke-width="2.5"/>
    <line id="Line_13" data-name="Line 13" y2="12.875" transform="translate(541.955 3323.745)" fill="none" stroke="#f95658" stroke-miterlimit="10" stroke-width="2.5"/>
    <line id="Line_14" data-name="Line 14" y2="12.875" transform="translate(547.105 3323.745)" fill="none" stroke="#f95658" stroke-miterlimit="10" stroke-width="2.5"/>
    <line id="Line_15" data-name="Line 15" y2="12.875" transform="translate(552.255 3323.745)" fill="none" stroke="#f95658" stroke-miterlimit="10" stroke-width="2.5"/>
    <line id="Line_16" data-name="Line 16" y2="12.875" transform="translate(557.405 3323.745)" fill="none" stroke="#f95658" stroke-miterlimit="10" stroke-width="2.5"/>
    <line id="Line_17" data-name="Line 17" y2="12.875" transform="translate(562.555 3323.745)" fill="none" stroke="#f95658" stroke-miterlimit="10" stroke-width="2.5"/>
    <line id="Line_18" data-name="Line 18" y2="3.862" transform="translate(541.955 3317.308)" fill="none" stroke="#f95658" stroke-miterlimit="10" stroke-width="2.5"/>
    <line id="Line_19" data-name="Line 19" y2="3.862" transform="translate(547.105 3317.308)" fill="none" stroke="#f95658" stroke-miterlimit="10" stroke-width="2.5"/>
    <line id="Line_20" data-name="Line 20" y2="3.862" transform="translate(552.255 3317.308)" fill="none" stroke="#f95658" stroke-miterlimit="10" stroke-width="2.5"/>
    <line id="Line_21" data-name="Line 21" y2="3.862" transform="translate(557.405 3317.308)" fill="none" stroke="#f95658" stroke-miterlimit="10" stroke-width="2.5"/>
    <line id="Line_22" data-name="Line 22" y2="3.862" transform="translate(562.555 3317.308)" fill="none" stroke="#f95658" stroke-miterlimit="10" stroke-width="2.5"/>
    <line id="Line_23" data-name="Line 23" y1="6.437" transform="translate(552.255 3296.708)" fill="none" stroke="#f95658" stroke-miterlimit="10" stroke-width="2.5"/>
    <path id="Path_231" data-name="Path 231" d="M44.894,85.854V72.979h7.725V85.854" transform="translate(503.499 3271.366)" fill="none" stroke="#f95658" stroke-miterlimit="10" stroke-width="2.5"/>
    <line id="Line_24" data-name="Line 24" x2="59.224" transform="translate(522.643 3357.22)" fill="none" stroke="#f95658" stroke-miterlimit="10" stroke-width="2.5"/>
    <circle id="Ellipse_2" data-name="Ellipse 2" cx="3.862" cy="3.862" r="3.862" transform="translate(523.93 3341.77)" fill="none" stroke="#f95658" stroke-miterlimit="10" stroke-width="2.5"/>
    <line id="Line_25" data-name="Line 25" y2="7.725" transform="translate(527.793 3349.494)" fill="none" stroke="#f95658" stroke-miterlimit="10" stroke-width="2.5"/>
    <circle id="Ellipse_3" data-name="Ellipse 3" cx="3.862" cy="3.862" r="3.862" transform="translate(572.855 3341.77)" fill="none" stroke="#f95658" stroke-miterlimit="10" stroke-width="2.5"/>
    <line id="Line_26" data-name="Line 26" y2="7.725" transform="translate(576.717 3349.494)" fill="none" stroke="#f95658" stroke-miterlimit="10" stroke-width="2.5"/>
  </g>
</svg>
