<svg xmlns="http://www.w3.org/2000/svg" width="26.414" height="26.451" viewBox="0 0 26.414 26.451">
  <g id="Group_834" data-name="Group 834" transform="translate(0.5 0.5)">
    <ellipse id="Ellipse_78" data-name="Ellipse 78" cx="2.507" cy="2.507" rx="2.507" ry="2.507" transform="translate(10.264)" fill="none" stroke="#f85557" stroke-linejoin="round" stroke-width="1"/>
    <path id="Path_1609" data-name="Path 1609" d="M-618.259,475.874V473.74a1.123,1.123,0,0,0-.228-.678,5.631,5.631,0,0,0-4.652-2.106,5.631,5.631,0,0,0-4.653,2.107,1.119,1.119,0,0,0-.227.676v2.135" transform="translate(635.846 -464.668)" fill="none" stroke="#f85557" stroke-linejoin="round" stroke-width="1"/>
    <line id="Line_114" data-name="Line 114" y1="1.351" transform="translate(10.052 9.855)" fill="none" stroke="#f85557" stroke-linejoin="round" stroke-width="1"/>
    <line id="Line_115" data-name="Line 115" y1="1.351" transform="translate(15.246 9.855)" fill="none" stroke="#f85557" stroke-linejoin="round" stroke-width="1"/>
    <g id="Group_831" data-name="Group 831" transform="translate(0 11.206)">
      <rect id="Rectangle_830" data-name="Rectangle 830" width="22.045" height="9.505" transform="translate(1.748 4.739)" fill="none" stroke="#f85557" stroke-linejoin="round" stroke-width="1"/>
      <path id="Path_1610" data-name="Path 1610" d="M-641.442,480.489h-1.748v4.739h1.748" transform="translate(643.19 -480.489)" fill="none" stroke="#f85557" stroke-linejoin="round" stroke-width="1"/>
      <path id="Path_1611" data-name="Path 1611" d="M-597.073,485.228h1.621v-4.739h-1.621" transform="translate(620.866 -480.489)" fill="none" stroke="#f85557" stroke-linejoin="round" stroke-width="1"/>
      <line id="Line_116" data-name="Line 116" x1="22.045" transform="translate(1.748 0)" fill="none" stroke="#f85557" stroke-linejoin="round" stroke-width="1"/>
      <line id="Line_117" data-name="Line 117" x2="22.045" transform="translate(1.748 4.739)" fill="none" stroke="#f85557" stroke-linejoin="round" stroke-width="1"/>
    </g>
  </g>
</svg>
