<svg xmlns="http://www.w3.org/2000/svg" width="20.175" height="20.15" viewBox="0 0 20.175 20.15">
  <g  transform="translate(0.131 0.125)">
    <path d="M91.816,43.918l-2.345-2.344a1.9,1.9,0,0,0-2.677,0L85.3,43.068l5.021,5.021,1.494-1.494a1.9,1.9,0,0,0,0-2.677Zm-.637,2.039-.857.857-3.747-3.746.857-.857a.993.993,0,0,1,1.4,0l2.344,2.345a1,1,0,0,1,0,1.4Z" transform="translate(-72.45 -41.02)" fill="#fff" stroke="#fff" stroke-width="0.25"/>
    <path d="M57.229,62.463,55.686,60.92l8.672-8.672-.637-.637-8.672,8.671L53.506,58.74l8.671-8.671-.637-.637L52.275,58.7a.452.452,0,0,0-.1.164l-2.493,6.833a.451.451,0,0,0,.576.578L57.11,63.8a.449.449,0,0,0,.166-.105l9.2-9.2-.637-.637ZM52.922,59.43l3.615,3.615-2.973,1.074-1.724-1.723Zm-1.423,3.9,1.128,1.128-1.773.64Z" transform="translate(-49.649 -46.399)" fill="#fff" stroke="#fff" stroke-width="0.25"/>
  </g>
</svg>
