<svg xmlns="http://www.w3.org/2000/svg" viewBox="0 0 15.16 16.414">
  <g fill="none" stroke="#1d1d1b" stroke-width="1.5">
    <circle cx="6.5" cy="6.5" r="6.5" stroke="none"/>
    <circle cx="6.5" cy="6.5" r="5.75" fill="none"/>
  </g>
  <line x2="4.746" y2="4.746" transform="translate(9.884 11.137)" fill="none" stroke="#1d1d1b" stroke-width="1.5"/>
</svg>
